o<work_touch> sub
G21
( Set current Z position to 0 so that we will always be moving down )
G10 L20 P0 Z0
( Probe to Z-.5 at F2 [Uses machine units, I work in inch, this is meant to be slow!] )
G38.2 Z-20 f15
( Set Z0 at point where probe triggers with offset of +1.008 [this is the thickness of my touch plate. You must adjust this for your plate / setup] )
(G10 L20 = Set Coordinate System // P - coordinate system 0-9 0 = Not active)
G10 L20 P1 Z1.5500
( Rapid up to Z.5 above the material )
(G10 L20 P1)
(Use machine coordinates)
G90
G53 G0
(Incremental mode)
G91
(Rapid Z up 1 inches)
G0 Z25
o<work_touch> endsub
</pre>