; Scan surface sub for compensation component
; Usage o<scan-surface> call [#<x0>] [#<y0>] [#<h>] [#<w>] [#<step>] [#<search_feed>] [#<latch_feed>] [#<safe_z>] [#<search_z>]
; All parameters are needed!
;
; Example:



o<surface> sub

	#<x0> = #1
	#<y0> = #2
	#<h> = #3
	#<w> = #4 
	#<step> = #5
	#<search_feed> = #6
	#<latch_feed> = #7
	#<safe_z> = #8
	#<search_z> = #9
;	T1 M6
	M64 P0  (turn off compensation)

	G0 Z#<safe_z>
	#<y> = #<y0>
	(PROBEOPEN surface.txt) 
	o101 while [#<y> GT [#<h>+#<y0>]*-1]
	  #<x> = [#<x0>-[#<step>/2]]
	  o102 while [#<x> LT #<w>+#<x0>]
		G0 X#<x> Y#<y> 
		F[#<search_feed>]
		G38.3 Z#<search_z>
		#<down_z> = #<_z>
		F[#<latch_feed>]
		G38.5 Z#<safe_z>
  	    G0 Z#<safe_z>
		#<x> = [#<x>+#<step>]
	  o102 endwhile
   	  #<y> = [#<y>-#<step>]
	o101 endwhile
	(PROBECLOSE) 

o<surface> endsub

#<ah> = 80 
#<aw> = 90 
#<ax0> = 10
#<ay0> = 10
#<astep> = 20
#<asearch_feed> = 120
#<alatch_feed> = 5
#<asafe_z> = 1.5

o<surface> call [#<ax0>] [#<ay0>] [#<ah>] [#<aw>] [#<astep>] [#<asearch_feed>] [#<alatch_feed>] [#<asafe_z>]

M02

