50.000000 25.000000 -150.308523 0.000000 0.000000 0.000000 0.000000 0.000000 0.000000
50.000000 25.000000 -150.136610 0.000000 0.000000 0.000000 0.000000 0.000000 0.000000
00000 10.000000 -1.000000 0.000000 0.000000 0.000000 0.000000 0.000000 0.000000
20.000000 10.000000 -1.000000 0.000000 0.000000 0.000000 0.000000 0.000000 0.000000
000000 10.000000 0.719237 0.000000 0.000000 0.000000 0.000000 0.000000 0.000000
100.000000 10.000000 0.762070 0.000000 0.000000 0.000000 0.000000 0.000000 0.000000
120.000000 10.000000 0.668570 0.000000 0.000000 0.000000 0.000000 0.000000 0.000000
140.000000 10.000000 0.465570 0.000000 0.000000 0.000000 0.000000 0.000000 0.000000
160.000000 10.000000 0.229237 0.000000 0.000000 0.000000 0.000000 0.000000 0.000000
0.000000 -10.000000 -0.126263 0.000000 0.000000 0.000000 0.000000 0.000000 0.000000
20.000000 -10.000000 0.089570 0.000000 0.000000 0.000000 0.000000 0.000000 0.000000
40.000000 -10.000000 0.298737 0.000000 0.000000 0.000000 0.000000 0.000000 0.000000
60.000000 -10.000000 0.471570 0.000000 0.000000 0.000000 0.000000 0.000000 0.000000
80.000000 -10.000000 0.581070 0.000000 0.000000 0.000000 0.000000 0.000000 0.000000
100.000000 -10.000000 0.592237 0.000000 0.000000 0.000000 0.000000 0.000000 0.000000
120.000000 -10.000000 0.499737 0.000000 0.000000 0.000000 0.000000 0.000000 0.000000
140.000000 -10.000000 0.337070 0.000000 0.000000 0.000000 0.000000 0.000000 0.000000
160.000000 -10.000000 0.142070 0.000000 0.000000 0.000000 0.000000 0.000000 0.000000
0.000000 -30.000000 -0.178097 0.000000 0.000000 0.000000 0.000000 0.000000 0.000000
20.000000 -30.000000 0.032403 0.000000 0.000000 0.000000 0.000000 0.000000 0.000000
40.000000 -30.000000 0.230903 0.000000 0.000000 0.000000 0.000000 0.000000 0.000000
60.000000 -30.000000 0.396570 0.000000 0.000000 0.000000 0.000000 0.000000 0.000000
80.000000 -30.000000 0.495903 0.000000 0.000000 0.000000 0.000000 0.000000 0.000000
100.000000 -30.000000 0.501237 0.000000 0.000000 0.000000 0.000000 0.000000 0.000000
120.000000 -30.000000 0.402237 0.000000 0.000000 0.000000 0.000000 0.000000 0.000000
140.000000 -30.000000 0.241403 0.000000 0.000000 0.000000 0.000000 0.000000 0.000000
160.000000 -30.000000 0.047237 0.000000 0.000000 0.000000 0.000000 0.000000 0.000000
0.000000 -50.000000 -0.221263 0.000000 0.000000 0.000000 0.000000 0.000000 0.000000
20.000000 -50.000000 -0.006763 0.000000 0.000000 0.000000 0.000000 0.000000 0.000000
40.000000 -50.000000 0.197403 0.000000 0.000000 0.000000 0.000000 0.000000 0.000000
60.000000 -50.000000 0.363237 0.000000 0.000000 0.000000 0.000000 0.000000 0.000000
80.000000 -50.000000 0.461903 0.000000 0.000000 0.000000 0.000000 0.000000 0.000000
100.000000 -50.000000 0.461570 0.000000 0.000000 0.000000 0.000000 0.000000 0.000000
120.000000 -50.000000 0.354737 0.000000 0.000000 0.000000 0.000000 0.000000 0.000000
140.000000 -50.000000 0.180070 0.000000 0.000000 0.000000 0.000000 0.000000 0.000000
160.000000 -50.000000 -0.024597 0.000000 0.000000 0.000000 0.000000 0.000000 0.000000
